BLUE_SKY=../Client/src/Font/sprites/r-typesheet42.gif
MOVE={0, 66, 33, 18}
UP={0, 99, 33, 18},{0, 132, 33, 18}
DOWN={0, 33, 33, 18},{0, 0, 33, 18}
_
PURPLE=../Client/src/Font/sprites/r-typesheet42.gif
MOVE={18, 66, 33, 18}
UP={18, 99, 33, 18},{18, 132, 33, 18}
DOWN={18, 33, 33, 18},{18, 0, 33, 18}
_
GREEN=../Client/src/Font/sprites/r-typesheet42.gif
MOVE={36, 66, 33, 18}
UP={36, 99, 33, 18},{36, 132, 33, 18}
DOWN={36, 33, 33, 18},{36, 0, 33, 18}
_
RED=../Client/src/Font/sprites/r-typesheet42.gif
MOVE={54, 66, 33, 18}
UP={54, 99, 33, 18},{54, 132, 33, 18}
DOWN={54, 33, 33, 18},{54, 0, 33, 18}
_
BLUE=../Client/src/Font/sprites/r-typesheet42.gif
MOVE={72, 66, 33, 18}
UP={72, 99, 33, 18},{72, 132, 33, 18}
DOWN={72, 33, 33, 18},{72, 0, 33, 18}
_
ENNEMY_1=../Client/src/Font/sprites/r-typesheet5.gif
MOVE={0, 0, 33, 33},{0, 33, 33, 33},{0, 66, 33, 33},{0, 99, 33, 33},{0, 132, 33, 33},{0, 165, 33, 33},{0, 198, 33, 33}
UP=
DOWN=
_
ENNEMY_2=../Client/src/Font/sprites/r-typesheet7.gif
MOVE={0, 99, 33, 33},{0, 132, 33, 33},{0, 165, 33, 33}
UP={33, 165, 33, 33},{33, 132, 33, 33},{33, 99, 33, 33}
DOWN={33, 99, 33, 33},{33, 132, 33, 33},{33, 165, 33, 33}
_
ENNEMY_1=../Client/src/Font/sprites/r-typesheet5.gif
MOVE={0, 0, 33, 33},{0, 33, 33, 33},{0, 66, 33, 33},{0, 99, 33, 33},{0, 132, 33, 33},{0, 165, 33, 33},{0, 198, 33, 33}
UP=
DOWN=
_